DSC 385 – Animations
…
The gganimate package adds powerful animation tools to ggplot2

Getting the data

We’ll be working with the gdp_ranked dataset:

gdp_ranked <- read_csv("https://wilkelab.org/DSC385/datasets/gdp_ranked.csv") |>
  mutate(rank = fct_rev(factor(rank)))

gdp_ranked

# A tibble: 500 × 6
   country country_code  year   gdp rank  gdp_rel
   <chr>   <chr>        <dbl> <dbl> <fct>   <dbl>
 1 Brazil  BRA           1970  42.3 10     0.0395
 2 Brazil  BRA           1971  49.2 10     0.0424
 3 Brazil  BRA           1972  58.5 10     0.0457
 4 Brazil  BRA           1973  79.3 10     0.0555
 5 Brazil  BRA           1974 105   9      0.0677
 6 Brazil  BRA           1975 124   9      0.0738
 7 Brazil  BRA           1976 153   9      0.0818
 8 Brazil  BRA           1977 176   8      0.0846
 9 Brazil  BRA           1978 201   8      0.0855
10 Brazil  BRA           1979 225   8      0.0856
# ℹ 490 more rows
…
