DSC 385 – Getting things into the right order
…
# A tibble: 3 × 2
  species       n
  <fct>     <int>
1 Adelie      152
2 Chinstrap    68
3 Gentoo      124

penguins |>
  # modify the original dataset, no summary
  mutate(species = fct_infreq(species))

# A tibble: 344 × 8
   species island    bill_length_mm bill_depth_mm flipper_length_mm body_mass_g
   <fct>   <fct>              <dbl>         <dbl>             <int>       <int>
 1 Adelie  Torgersen           39.1          18.7               181        3750
 2 Adelie  Torgersen           39.5          17.4               186        3800
 3 Adelie  Torgersen           40.3          18                 195        3250
 4 Adelie  Torgersen           NA            NA                  NA          NA
 5 Adelie  Torgersen           36.7          19.3               193        3450
 6 Adelie  Torgersen           39.3          20.6               190        3650
 7 Adelie  Torgersen           38.9          17.8               181        3625
 8 Adelie  Torgersen           39.2          19.6               195        4675
 9 Adelie  Torgersen           34.1          18.1               193        3475
10 Adelie  Torgersen           42            20.2               190        4250
# ℹ 334 more rows
# ℹ 2 more variables: sex <fct>, year <int>
…
Ordering other plot elements

The gapminder dataset: Life expectancy data

library(gapminder)

gapminder

# A tibble: 1,704 × 6
   country     continent  year lifeExp      pop gdpPercap
   <fct>       <fct>     <int>   <dbl>    <int>     <dbl>
 1 Afghanistan Asia       1952    28.8  8425333      779.
 2 Afghanistan Asia       1957    30.3  9240934      821.
 3 Afghanistan Asia       1962    32.0 10267083      853.
 4 Afghanistan Asia       1967    34.0 11537966      836.
 5 Afghanistan Asia       1972    36.1 13079460      740.
 6 Afghanistan Asia       1977    38.4 14880372      786.
 7 Afghanistan Asia       1982    39.9 12881816      978.
 8 Afghanistan Asia       1987    40.8 13867957      852.
 9 Afghanistan Asia       1992    41.7 16317921      649.
10 Afghanistan Asia       1997    41.8 22227415      635.
# ℹ 1,694 more rows
…
Final example: Lumping factor levels together

Dataset: Flights out of New York City in 2013

library(nycflights13)

flight_data <- flights |> # take data on individual flights
  left_join(airlines) |>  # add in full-length airline names
  select(name, carrier, flight, year, month, day, origin, dest) # pick columns of interest

flight_data

# A tibble: 336,776 × 8
   name                     carrier flight  year month   day origin dest 
   <chr>                    <chr>    <int> <int> <int> <int> <chr>  <chr>
 1 United Air Lines Inc.    UA        1545  2013     1     1 EWR    IAH  
 2 United Air Lines Inc.    UA        1714  2013     1     1 LGA    IAH  
 3 American Airlines Inc.   AA        1141  2013     1     1 JFK    MIA  
 4 JetBlue Airways          B6         725  2013     1     1 JFK    BQN  
 5 Delta Air Lines Inc.     DL         461  2013     1     1 LGA    ATL  
 6 United Air Lines Inc.    UA        1696  2013     1     1 EWR    ORD  
 7 JetBlue Airways          B6         507  2013     1     1 EWR    FLL  
 8 ExpressJet Airlines Inc. EV        5708  2013     1     1 LGA    IAD  
 9 JetBlue Airways          B6          79  2013     1     1 JFK    MCO  
10 American Airlines Inc.   AA         301  2013     1     1 LGA    ORD  
# ℹ 336,766 more rows
…
