DSC 385 – Visualizing distributions 2
…
Notice the single fill color. More colors would be distracting.

Making boxplots, violins, etc. in ggplot2

Getting the data

All examples will use the lincoln_temps dataset:

lincoln_temps <- readRDS(url("https://wilkelab.org/DSC385/datasets/lincoln_temps.rds"))

lincoln_temps

# A tibble: 366 × 4
   date       month month_long mean_temp
   <date>     <fct> <fct>          <int>
 1 2016-01-01 Jan   January           24
 2 2016-01-02 Jan   January           23
 3 2016-01-03 Jan   January           23
 4 2016-01-04 Jan   January           17
 5 2016-01-05 Jan   January           29
 6 2016-01-06 Jan   January           33
 7 2016-01-07 Jan   January           30
 8 2016-01-08 Jan   January           25
 9 2016-01-09 Jan   January            9
10 2016-01-10 Jan   January           11
# ℹ 356 more rows
…
